{
  "project_info": {
    "project_number": "591421101524",
    "firebase_url": "https://dummy-4b22c.firebaseio.com",
    "project_id": "dummy-4b22c",
    "storage_bucket": "dummy-4b22c.appspot.com"
  },
  "client": [
    {
      "client_info": {
        "mobilesdk_app_id": "1:591421101524:android:8dac0de63f7d0efa",
        "android_client_info": {
          "package_name": "hoyo321.newbie.com.googleloginhelper"
        }
      },
      "oauth_client": [
        {
          "client_id": "591421101524-ph29jfrbtun15n11b4skr94hn0lc5mog.apps.googleusercontent.com",
          "client_type": 3
        }
      ],
      "api_key": [
        {
          "current_key": "AIzaSyCtHsEXoFrfawKmUaoUwHUGwLTpEDn77ao"
        }
      ],
      "services": {
        "analytics_service": {
          "status": 1
        },
        "appinvite_service": {
          "status": 1,
          "other_platform_oauth_client": []
        },
        "ads_service": {
          "status": 2
        }
      }
    },
    {
      "client_info": {
        "mobilesdk_app_id": "1:591421101524:android:05e074f396d99532",
        "android_client_info": {
          "package_name": "hoyo321.newbie.com.loginhelper"
        }
      },
      "oauth_client": [
        {
          "client_id": "591421101524-5eklvubu8aitanevrc7hbfgg1iar2sdf.apps.googleusercontent.com",
          "client_type": 1,
          "android_info": {
            "package_name": "hoyo321.newbie.com.loginhelper",
            "certificate_hash": "10609483d00e3f66bf0106e98bc534c924a693f5"
          }
        },
        {
          "client_id": "591421101524-ph29jfrbtun15n11b4skr94hn0lc5mog.apps.googleusercontent.com",
          "client_type": 3
        }
      ],
      "api_key": [
        {
          "current_key": "AIzaSyCtHsEXoFrfawKmUaoUwHUGwLTpEDn77ao"
        }
      ],
      "services": {
        "analytics_service": {
          "status": 1
        },
        "appinvite_service": {
          "status": 2,
          "other_platform_oauth_client": [
            {
              "client_id": "591421101524-ph29jfrbtun15n11b4skr94hn0lc5mog.apps.googleusercontent.com",
              "client_type": 3
            }
          ]
        },
        "ads_service": {
          "status": 2
        }
      }
    },
    {
      "client_info": {
        "mobilesdk_app_id": "1:591421101524:android:b823eac65cfebaf0",
        "android_client_info": {
          "package_name": "com.gyungdal.loginhelper"
        }
      },
      "oauth_client": [
        {
          "client_id": "591421101524-ph29jfrbtun15n11b4skr94hn0lc5mog.apps.googleusercontent.com",
          "client_type": 3
        }
      ],
      "api_key": [
        {
          "current_key": "AIzaSyCtHsEXoFrfawKmUaoUwHUGwLTpEDn77ao"
        }
      ],
      "services": {
        "analytics_service": {
          "status": 1
        },
        "appinvite_service": {
          "status": 1,
          "other_platform_oauth_client": []
        },
        "ads_service": {
          "status": 2
        }
      }
    }
  ],
  "configuration_version": "1"
}